…
ggtable(ext_exports)
#> # A tibble: 1 × 1
#>   value
#>   <dbl>
#> 1  5527

ggtable(ext_exports |> filter(ind_classic_prefix))
#> # A tibble: 1 × 1
#>   value
#>   <dbl>
#> 1  1992

last_table() |>
  set_rows(user) 
#> # A tibble: 86 × 2
#>    user                 value
#>    <chr>                <dbl>
#>  1 AckerDWM                 2
#>  2 AllanCameron            32
#>  3 Ather-Energy             6
#>  4 IndrajeetPatil           1
#>  5 LCBC-UiO                34
#>  6 LKremer                  1
#>  7 ProjectMOSAIC            8
#>  8 PursuitOfDataScience     4
#>  9 Ryo-N7                  54
#> 10 Selbosh                  7
#> # ℹ 76 more rows

last_table() |>
  set_cols(prefix)
#> # A tibble: 86 × 7
#>    user          coord_ facet_ geom_ scale_ stat_ theme_
#>    <chr>          <dbl>  <dbl> <dbl>  <dbl> <dbl>  <dbl>
#>  1 AllanCameron       1     NA    24      6     1     NA
#>  2 cidm-ph            1     NA     4     NA     2     NA
#>  3 davidchall         1     NA     1     NA     1      2
#>  4 easystats          1     NA    14     78    NA      6
#>  5 hrbrmstr           1     NA    11     10     6      9
#>  6 stefanedwards      5      2     3      2    NA     NA
#>  7 teunbrand          2      5    11     47     7      1
#>  8 davidgohel        NA      2    50     94    NA     NA
#>  9 earowang          NA      1     1     NA     1     NA
#> 10 erocoar           NA      1    12     NA     5     NA
#> # ℹ 76 more rows
…
