Tidy table calculations with visual api • tidypivot
…
# two rows and col and contains zero counts
tidy_titanic %>% 
  pivot_count(rows = c(Survived, Class), cols = c(Sex, Age), pivot = F)
#> # A tibble: 32 × 5
#>    Sex   Age   Survived Class count
#>    <fct> <fct> <fct>    <fct> <int>
#>  1 Male  Child No       1st       0
#>  2 Male  Child No       2nd       0
#>  3 Male  Child No       3rd      35
#>  4 Male  Child No       Crew      0
#>  5 Male  Child Yes      1st       5
#>  6 Male  Child Yes      2nd      11
#>  7 Male  Child Yes      3rd      13
#>  8 Male  Child Yes      Crew      0
#>  9 Male  Adult No       1st     118
#> 10 Male  Adult No       2nd     154
#> # … with 22 more rows
…
